GET https://api.mixpanel.com/decide/?verbose=1&version=1&lib=web&token=94b5c311692e7c9d03cef9c9a7a32eaf&ip=1&_=1590062064543 HTTP/2.0
user-agent: Mozilla/5.0 (Windows NT 10.0; Win64; x64) AppleWebKit/537.36 (KHTML, like Gecko) Chrome/81.0.4044.138 Safari/537.36
accept: */*
sec-fetch-site: none
sec-fetch-mode: cors
sec-fetch-dest: empty
accept-encoding: gzip, deflate, br
accept-language: en-US,en;q=0.9,hi;q=0.8

