GET https://key12.k12.com:443/i/app_ui/css/Core.min.css?v=18.2.0.00.12 HTTP/1.1
Host: key12.k12.com
Connection: keep-alive
User-Agent: Mozilla/5.0 (Windows NT 10.0; Win64; x64) AppleWebKit/537.36 (KHTML, like Gecko) Chrome/81.0.4044.138 Safari/537.36
Accept: text/css,*/*;q=0.1
Sec-Fetch-Site: same-origin
Sec-Fetch-Mode: no-cors
Sec-Fetch-Dest: style
Referer: https://key12.k12.com/ords/f?p=306:LOGIN_DESKTOP:111352597396619:::::
Accept-Encoding: gzip, deflate, br
Accept-Language: en-US,en;q=0.9,hi;q=0.8

