GET https://key12.k12.com:443/i/favicon-32x32.png HTTP/1.1
Host: key12.k12.com
Connection: keep-alive
User-Agent: Mozilla/5.0 (Windows NT 10.0; Win64; x64) AppleWebKit/537.36 (KHTML, like Gecko) Chrome/81.0.4044.138 Safari/537.36
Accept: image/webp,image/apng,image/*,*/*;q=0.8
Sec-Fetch-Site: same-origin
Sec-Fetch-Mode: no-cors
Sec-Fetch-Dest: empty
Referer: https://key12.k12.com/ords/f?p=306:LOGIN_DESKTOP:111352597396619:::::
Accept-Encoding: gzip, deflate, br
Accept-Language: en-US,en;q=0.9,hi;q=0.8

