GET https://key12.k12.com:443/i/libraries/apex/minified/chartBundle.min.js?v=18.2.0.00.12 HTTP/1.1
Host: key12.k12.com
Connection: keep-alive
User-Agent: Mozilla/5.0 (Windows NT 10.0; Win64; x64) AppleWebKit/537.36 (KHTML, like Gecko) Chrome/81.0.4044.138 Safari/537.36
Accept: */*
Sec-Fetch-Site: same-origin
Sec-Fetch-Mode: no-cors
Sec-Fetch-Dest: script
Referer: https://key12.k12.com/ords/f?p=302:21:103778539285214::NO:RP,21:P21_ENROLLMENT_PK1,P21_COURSE_SUB_PK1,P21_COMPLETED_ASSESSMENT_COUNT,P21_NOT_SUBMITED_ASSESSMENT_COUNT,P21_TOTAL_ASSESSMENT_COUNT,P21_GRADE_AVERAGE,P21_STUDENT_ID:938709,7982,1,56,57,20%25,510198
Accept-Encoding: gzip, deflate, br
Accept-Language: en-US,en;q=0.9

