GET https://key12.k12.com:443/ords/wwv_flow.js_messages?p_app_id=302&p_lang=en&p_version=18.2.0.00.12-334475983096 HTTP/1.1
Host: key12.k12.com
Connection: keep-alive
User-Agent: Mozilla/5.0 (Windows NT 10.0; Win64; x64) AppleWebKit/537.36 (KHTML, like Gecko) Chrome/81.0.4044.138 Safari/537.36
Accept: */*
Sec-Fetch-Site: same-origin
Sec-Fetch-Mode: no-cors
Sec-Fetch-Dest: script
Referer: https://key12.k12.com/ords/f?p=302:LOGIN_DESKTOP:103778539285214:::::
Accept-Encoding: gzip, deflate, br
Accept-Language: en-US,en;q=0.9
Cookie: ORA_WWV_APP_302=ORA_WWV-izRwzeMzE7q45UgDX9afGqEV; ORA_WWV_RAC_INSTANCE=2

